%YAML 1.1
%TAG !u! tag:unity3d.com,2011:
--- !u!114 &11400000
MonoBehaviour:
  m_ObjectHideFlags: 0
  m_CorrespondingSourceObject: {fileID: 0}
  m_PrefabInstance: {fileID: 0}
  m_PrefabAsset: {fileID: 0}
  m_GameObject: {fileID: 0}
  m_Enabled: 1
  m_EditorHideFlags: 0
  m_Script: {fileID: 11500000, guid: 040c19ddcea4546158ea7a98e2521a0d, type: 3}
  m_Name: Baobab8
  m_EditorClassIdentifier: 
  sPosicion: {x: -8, y: -17, z: -2}
  sCrecimiento: 0.1
